{
"apps": [{
"name": "Boilerplate",
"script": "manage.py",
"args": ["runserver", "0.0.0.0:8009"],
"exec_mode": "fork",
"instances": "1",
"wait_ready": true,
"autorestart": false,
"max_restarts": 5,
"interpreter" : "python"
}]
}
